-------------------------------------------------------------------------------
Test set: sheridan.LoginValidatorTest
-------------------------------------------------------------------------------
Tests run: 8, Failures: 0, Errors: 0, Skipped: 0, Time elapsed: 0.1 sec
